Statystyka i wizualizacja danych - 5 Statystyki opisowe
…
Oblicz średnią oczekiwaną długość trwania życia w poszczególnych latach.

Średnia oczekiwana długość życia w podziale na kontynenty oraz lata.

by_continent_year <- group_by(gapminder, continent, year)
smr_by_continent_year <- summarize(by_continent_year,
                              mean_le = mean(lifeExp))

`summarise()` has grouped output by 'continent'. You can override using the
`.groups` argument.

smr_by_continent_year

# A tibble: 60 × 3
# Groups:   continent [5]
   continent  year mean_le
   <fct>     <int>   <dbl>
 1 Africa     1952    39.1
 2 Africa     1957    41.3
 3 Africa     1962    43.3
 4 Africa     1967    45.3
 5 Africa     1972    47.5
 6 Africa     1977    49.6
 7 Africa     1982    51.6
 8 Africa     1987    53.3
 9 Africa     1992    53.6
10 Africa     1997    53.6
# ℹ 50 more rows
…
